{
  "name": "3p",
  "do": "",
  "dont": "",
  "tags": [
    "3",
    "account",
    "face",
    "human",
    "party",
    "people",
    "person",
    "profile",
    "user"
  ],
  "category": ["communication"],
  "type": "static",
  "label": "None",
  "date": "03/03/2021",
  "hasOutlined": true
}
