{
  "name": "60fps_select",
  "do": "",
  "dont": "",
  "tags": [
    "60",
    "camera",
    "digits",
    "fps",
    "frame",
    "frequency",
    "numbers",
    "per",
    "rate",
    "second",
    "seconds",
    "select",
    "video"
  ],
  "category": ["image"],
  "type": "static",
  "label": "None",
  "date": "03/03/2021",
  "hasOutlined": true
}
