{
  "name": "add_road",
  "do": "",
  "dont": "",
  "tags": [
    "add",
    "destination",
    "direction",
    "highway",
    "plus",
    "road",
    "stop",
    "street"
  ],
  "category": ["maps"],
  "type": "static",
  "hasOutlined": true,
  "date": "30/11/2020"
}
