{
  "name": "add_moderator",
  "do": "",
  "dont": "",
  "tags": [
    "+",
    "add",
    "certified",
    "guard",
    "moderator",
    "plus",
    "protect",
    "security",
    "shield"
  ],
  "category": ["social"],
  "type": "static",
  "label": "None",
  "date": "03/03/2021",
  "hasOutlined": true
}
