{
  "name": "add_box",
  "do": "",
  "dont": "",
  "tags": ["add", "new", "square", "create", "box", "+", "plus"],
  "category": ["content"],
  "type": "static",
  "hasOutlined": true,
  "date": "30/11/2020"
}
