{
  "name": "album",
  "do": "",
  "dont": "",
  "tags": ["play", "cd", "music", "artist", "record", "Album", "track"],
  "category": ["av"],
  "type": "static",
  "hasOutlined": true,
  "date": "30/11/2020"
}
