{
  "name": "art_track",
  "do": "",
  "dont": "",
  "tags": ["Art", "display", "format", "insert", "track"],
  "category": ["av"],
  "type": "static",
  "hasOutlined": true,
  "date": "30/11/2020"
}
