{
  "name": "assignment_returned",
  "do": "",
  "dont": "",
  "tags": ["arrow", "assignment", "clipboard", "down", "point"],
  "category": ["action"],
  "type": "static",
  "hasOutlined": true,
  "date": "30/11/2020"
}
