{
  "name": "assignment_turned_in",
  "do": "",
  "dont": "",
  "tags": ["assignment", "finished", "check", "complete", "clipboard", "done"],
  "category": ["action"],
  "type": "static",
  "hasOutlined": true,
  "date": "30/11/2020"
}
