{
  "name": "auto_awesome",
  "do": "",
  "dont": "",
  "tags": [
    "auto",
    "awesome",
    "edit",
    "editing",
    "enhance. photos",
    "filter",
    "image",
    "photography",
    "setting",
    "stars"
  ],
  "category": ["image"],
  "type": "static",
  "label": "None",
  "date": "03/03/2021",
  "hasOutlined": true
}
