{
  "name": "balcony",
  "do": "",
  "dont": "",
  "tags": [
    "hotel",
    "house",
    "balcony",
    "balcony view",
    "window",
    "outside",
    "room"
  ],
  "category": ["places"],
  "type": "static",
  "label": "None",
  "date": "03/03/2021",
  "hasOutlined": true
}
