{
  "name": "battery_unknown",
  "do": "",
  "dont": "",
  "tags": [
    "charge",
    "question",
    "Battery",
    "mobile",
    "power",
    "cell",
    "plus",
    "unknown"
  ],
  "category": ["device"],
  "type": "static",
  "hasOutlined": true,
  "date": "30/11/2020"
}
