{
  "name": "bedroom_child",
  "do": "",
  "dont": "",
  "tags": [
    "bed",
    "bedroom",
    "child",
    "children",
    "furniture",
    "home",
    "hotel",
    "house",
    "kid",
    "night",
    "pillows",
    "rest",
    "room",
    "size",
    "sleep",
    "twin",
    "young"
  ],
  "category": ["search"],
  "type": "static",
  "label": "None",
  "date": "03/03/2021",
  "hasOutlined": true
}
