{
  "name": "bluetooth",
  "do": "",
  "dont": "",
  "tags": ["symbol", "bluetooth", "connection", "paring", "device"],
  "category": ["device"],
  "type": "static",
  "hasOutlined": true,
  "date": "30/11/2020"
}
