{
  "name": "business",
  "do": "",
  "dont": "",
  "tags": ["address", "company", "building", "structure", "Business"],
  "category": ["communication"],
  "type": "static",
  "hasOutlined": true,
  "date": "30/11/2020"
}
