{
  "name": "business_center",
  "do": "",
  "dont": "",
  "tags": ["portfolio", "briefcase", "bag", "folder"],
  "category": ["places"],
  "type": "static",
  "hasOutlined": true,
  "date": "30/11/2020"
}
