{
  "name": "calendar_view_week",
  "do": "",
  "dont": "",
  "tags": [
    "calendar",
    "date",
    "day",
    "event",
    "month",
    "remember",
    "reminder",
    "schedule",
    "today",
    "week"
  ],
  "category": ["action"],
  "type": "static",
  "label": "None",
  "date": "03/03/2021",
  "hasOutlined": true
}
