{
  "name": "calendar_today",
  "do": "",
  "dont": "",
  "tags": [
    "calendar",
    "date",
    "day",
    "event",
    "month",
    "remember",
    "reminder",
    "today",
    "week"
  ],
  "category": ["action"],
  "type": "static",
  "hasOutlined": true,
  "date": "30/11/2020"
}
