{
  "name": "call_made",
  "do": "",
  "dont": "",
  "tags": ["Call", "arrow", "made", "mobile", "device"],
  "category": ["communication"],
  "type": "static",
  "hasOutlined": true,
  "date": "30/11/2020"
}
