{
  "name": "call_split",
  "do": "",
  "dont": "",
  "tags": ["Call", "split", "arrow", "mobile", "device"],
  "category": ["communication"],
  "type": "static",
  "hasOutlined": true,
  "date": "30/11/2020"
}
