{
  "name": "card_membership",
  "do": "",
  "dont": "",
  "tags": [
    "certificate",
    "bill",
    "pay",
    "dollars",
    "membership",
    "subscription",
    "commerce",
    "cart",
    "money",
    "online",
    "currency",
    "payment",
    "credit",
    "cash",
    "card",
    "coin",
    "shopping"
  ],
  "category": ["action"],
  "type": "static",
  "hasOutlined": true,
  "date": "30/11/2020"
}
