{
  "name": "chrome_reader_mode",
  "do": "",
  "dont": "",
  "tags": ["mode", "read", "chrome", "reader", "text"],
  "category": ["action"],
  "type": "static",
  "hasOutlined": true,
  "date": "30/11/2020"
}
