{
  "name": "cloud_download",
  "do": "",
  "dont": "",
  "tags": [
    "cloud",
    "transfer",
    "excange",
    "server",
    "storage",
    "remote",
    "download"
  ],
  "category": ["file"],
  "type": "static",
  "hasOutlined": true,
  "date": "30/11/2020"
}
