{
  "name": "code_off",
  "do": "",
  "dont": "",
  "tags": [
    "css",
    "code",
    "developer",
    "html",
    "develop",
    "engineering",
    "engineer",
    "platform",
    "brackets"
  ],
  "category": ["action"],
  "type": "static",
  "label": "None",
  "date": "03/03/2021",
  "hasOutlined": true
}
