{
  "name": "confirmation_number",
  "do": "",
  "dont": "",
  "tags": ["ticket", "card", "coupon"],
  "category": ["notification"],
  "type": "static",
  "hasOutlined": true,
  "date": "30/11/2020"
}
