{
  "name": "copyright",
  "do": "",
  "dont": "",
  "tags": [
    "symbol",
    "character",
    "copyright",
    "C",
    "letter",
    "alphabet",
    "text",
    "type",
    "emblem",
    "font"
  ],
  "category": ["action"],
  "type": "static",
  "hasOutlined": true,
  "date": "30/11/2020"
}
