{
  "name": "credit_card_off",
  "do": "",
  "dont": "",
  "tags": [
    "declined",
    "rejected",
    "debt",
    "money",
    "cash",
    "payment",
    "cancel"
  ],
  "category": ["action"],
  "type": "static",
  "label": "None",
  "date": "03/03/2021",
  "hasOutlined": true
}
