{
  "name": "description",
  "do": "",
  "dont": "",
  "tags": [
    "file",
    "notes",
    "document",
    "writing",
    "description",
    "doc",
    "information",
    "text",
    "article",
    "content"
  ],
  "category": ["action"],
  "type": "static",
  "hasOutlined": true,
  "date": "30/11/2020"
}
