{
  "name": "download_for_offline",
  "do": "",
  "dont": "",
  "tags": [
    "arrow",
    "arrows",
    "circle",
    "down",
    "download",
    "downloads",
    "drive",
    "install",
    "upload"
  ],
  "category": ["file"],
  "type": "static",
  "label": "None",
  "date": "03/03/2021",
  "hasOutlined": true
}
