{
  "name": "emoji_food_beverage",
  "do": "",
  "dont": "",
  "tags": [
    "beverage",
    "coffee",
    "cup",
    "drink",
    "emoji",
    "mug",
    "plate",
    "set",
    "tea"
  ],
  "category": ["social"],
  "type": "static",
  "hasOutlined": true,
  "date": "30/11/2020"
}
