{
  "name": "face_retouching_natural",
  "do": "",
  "dont": "",
  "tags": [
    "edit",
    "editing",
    "effect",
    "emoji",
    "emotion",
    "face",
    "faces",
    "image",
    "natural",
    "photo",
    "photography",
    "retouch",
    "retouching",
    "settings",
    "star",
    "tag"
  ],
  "category": ["image"],
  "type": "static",
  "label": "None",
  "date": "03/03/2021",
  "hasOutlined": true
}
