{
  "name": "file_present",
  "do": "",
  "dont": "",
  "tags": [
    "clip",
    "data",
    "doc",
    "document",
    "drive",
    "file",
    "folder",
    "folders",
    "note",
    "paper",
    "paperclip",
    "present",
    "reminder",
    "sheet",
    "slide",
    "storage",
    "writing"
  ],
  "category": ["action"],
  "type": "static",
  "label": "None",
  "date": "03/03/2021",
  "hasOutlined": true
}
