{
  "name": "filter",
  "do": "",
  "dont": "",
  "tags": ["filter", "images", "mountain", "photo", "collection", "media"],
  "category": ["image"],
  "type": "static",
  "hasOutlined": true,
  "date": "30/11/2020"
}
