{
  "name": "fireplace",
  "do": "",
  "dont": "",
  "tags": [
    "chimney",
    "fire",
    "fireplace",
    "flame",
    "home",
    "house",
    "living",
    "pit",
    "place",
    "room",
    "warm",
    "winter"
  ],
  "category": ["social"],
  "type": "static",
  "hasOutlined": true,
  "date": "30/11/2020"
}
