{
  "name": "font_download",
  "do": "",
  "dont": "",
  "tags": [
    "A",
    "square",
    "symbol",
    "character",
    "download",
    "letter",
    "save",
    "alphabet",
    "text",
    "type",
    "font"
  ],
  "category": ["content"],
  "type": "static",
  "hasOutlined": true,
  "date": "30/11/2020"
}
