{
  "name": "free_breakfast",
  "do": "",
  "dont": "",
  "tags": ["coffee", "tee", "mug", "cup", "brunch", "meal"],
  "category": ["places"],
  "type": "static",
  "hasOutlined": true,
  "date": "30/11/2020"
}
