{
  "name": "get_app",
  "do": "",
  "dont": "",
  "tags": ["download", "arrow", "get", "retrieve", "pointing", "down"],
  "category": ["action"],
  "type": "static",
  "hasOutlined": true,
  "date": "30/11/2020"
}
