{
  "name": "hd",
  "do": "",
  "dont": "",
  "tags": [
    "symbol",
    "tv",
    "movie",
    "alphabet",
    "type",
    "resolution",
    "movies",
    "character",
    "high",
    "letter",
    "definition",
    "text",
    "Hd",
    "font"
  ],
  "category": ["av"],
  "type": "static",
  "hasOutlined": true,
  "date": "30/11/2020"
}
