{
  "name": "hdr_enhanced_select",
  "do": "",
  "dont": "",
  "tags": [
    "add",
    "alphabet",
    "character",
    "dynamic",
    "enhance",
    "font",
    "hdr",
    "high",
    "letter",
    "plus",
    "range",
    "select",
    "symbol",
    "text",
    "type"
  ],
  "category": ["image"],
  "type": "static",
  "label": "None",
  "date": "03/03/2021",
  "hasOutlined": true
}
