{
  "name": "headset_off",
  "do": "",
  "dont": "",
  "tags": [
    "accessory",
    "audio",
    "chat",
    "device",
    "disabled",
    "ear",
    "earphone",
    "enabled",
    "headphones",
    "headset",
    "listen",
    "mic",
    "music",
    "off",
    "on",
    "slash",
    "sound",
    "talk"
  ],
  "category": ["hardware"],
  "type": "static",
  "label": "None",
  "date": "03/03/2021",
  "hasOutlined": true
}
