{
  "name": "height",
  "do": "",
  "dont": "",
  "tags": [
    "color",
    "doc",
    "edit",
    "editing",
    "editor",
    "fill",
    "format",
    "paint",
    "sheet",
    "spreadsheet",
    "style",
    "text",
    "type",
    "writing"
  ],
  "category": ["editor"],
  "type": "static",
  "hasOutlined": true,
  "date": "30/11/2020"
}
