{
  "name": "home",
  "do": "",
  "dont": "",
  "tags": [
    "unit",
    "address",
    "place",
    "residence",
    "house",
    "building",
    "structure",
    "home"
  ],
  "category": ["action"],
  "type": "static",
  "hasOutlined": true,
  "date": "30/11/2020"
}
