{
  "name": "indeterminate_check_box",
  "do": "",
  "dont": "",
  "tags": ["undetermined", "undefined", "unspecified"],
  "category": ["toggle"],
  "type": "static",
  "hasOutlined": true,
  "date": "30/11/2020"
}
