{
  "name": "keyboard",
  "do": "",
  "dont": "",
  "tags": ["writing", "words", "type", "key", "letter", "words"],
  "category": ["toggle"],
  "type": "static",
  "hasOutlined": true,
  "date": "30/11/2020"
}
