{
  "name": "kitesurfing",
  "do": "",
  "dont": "",
  "tags": [
    "activity",
    "action",
    "sport",
    "people",
    "game",
    "extreme",
    "adventure",
    "surfing",
    "water",
    "wakeboard",
    "parachute"
  ],
  "category": ["social"],
  "type": "static",
  "label": "None",
  "date": "03/03/2021",
  "hasOutlined": true
}
