{
  "name": "light_mode",
  "do": "",
  "dont": "",
  "tags": [
    "day",
    "sun",
    "climate",
    "forecast",
    "weather",
    "brightness",
    "contrast",
    "on",
    "setting",
    "photography",
    "computer",
    "screen",
    "ui",
    "app",
    "interface"
  ],
  "category": ["device"],
  "type": "static",
  "label": "None",
  "date": "03/03/2021",
  "hasOutlined": true
}
