{
  "name": "live_help",
  "do": "",
  "dont": "",
  "tags": [
    "help",
    "symbol",
    "question",
    "information",
    "support",
    "mark",
    "?",
    "announcement",
    "info"
  ],
  "category": ["communication"],
  "type": "static",
  "hasOutlined": true,
  "date": "30/11/2020"
}
