{
  "name": "local_gas_station",
  "do": "",
  "dont": "",
  "tags": ["auto", "oil", "car", "gas", "station", "vehicle"],
  "category": ["maps"],
  "type": "static",
  "hasOutlined": true,
  "date": "30/11/2020"
}
