{
  "name": "local_bar",
  "do": "",
  "dont": "",
  "tags": [
    "alcohol",
    "bar",
    "cocktail",
    "bottle",
    "liquor",
    "drink",
    "food",
    "wine"
  ],
  "category": ["maps"],
  "type": "static",
  "hasOutlined": true,
  "date": "30/11/2020"
}
