{
  "name": "local_grocery_store",
  "do": "",
  "dont": "",
  "tags": ["market", "shop", "grocery", "store"],
  "category": ["maps"],
  "type": "static",
  "hasOutlined": true,
  "date": "30/11/2020"
}
