{
  "name": "lock",
  "do": "",
  "dont": "",
  "tags": [
    "private",
    "safe",
    "lock",
    "privacy",
    "connection",
    "locked",
    "secure",
    "key"
  ],
  "category": ["action"],
  "type": "static",
  "hasOutlined": true,
  "date": "30/11/2020"
}
