{
  "name": "looks_3",
  "do": "",
  "dont": "",
  "tags": ["photography", "photo", "image", "style", "custom", "glance"],
  "category": ["image"],
  "type": "static",
  "hasOutlined": true,
  "date": "30/11/2020"
}
