{
  "name": "lte_mobiledata",
  "do": "",
  "dont": "",
  "tags": [
    "alphabet",
    "character",
    "data",
    "font",
    "internet",
    "letter",
    "lte",
    "mobile",
    "network",
    "speed",
    "symbol",
    "text",
    "type",
    "wifi",
    "wireless"
  ],
  "category": ["device"],
  "type": "static",
  "label": "None",
  "date": "03/03/2021",
  "hasOutlined": true
}
