{
  "name": "manage_accounts",
  "do": "",
  "dont": "",
  "tags": [
    "accounts",
    "face",
    "gear",
    "human",
    "manage",
    "people",
    "person",
    "profile",
    "settings",
    "user"
  ],
  "category": ["action"],
  "type": "static",
  "label": "None",
  "date": "03/03/2021",
  "hasOutlined": true
}
