{
  "name": "markunread_mailbox",
  "do": "",
  "dont": "",
  "tags": [
    "receive",
    "mailbox",
    "mail",
    "post",
    "postbox",
    "unread",
    "letter",
    "deliver",
    "postal",
    "envelop",
    "send"
  ],
  "category": ["action"],
  "type": "static",
  "hasOutlined": true,
  "date": "30/11/2020"
}
