{
  "name": "mms",
  "do": "",
  "dont": "",
  "tags": ["Multimedia Messaging Service", "image", "message", "media", "text"],
  "category": ["notification"],
  "type": "static",
  "hasOutlined": true,
  "date": "30/11/2020"
}
