{
  "name": "monochrome_photos",
  "do": "",
  "dont": "",
  "tags": [
    "photography",
    "photo",
    "image",
    "style",
    "black & white",
    "magnify"
  ],
  "category": ["image"],
  "type": "static",
  "hasOutlined": true,
  "date": "30/11/2020"
}
