{
  "name": "move_to_inbox",
  "do": "",
  "dont": "",
  "tags": ["incoming", "mail", "arrow", "archive", "message", "inbox", "email"],
  "category": ["content"],
  "type": "static",
  "hasOutlined": true,
  "date": "30/11/2020"
}
