{
  "name": "nearby_error",
  "do": "",
  "dont": "",
  "tags": [
    "!",
    "alert",
    "attention",
    "caution",
    "danger",
    "error",
    "exclamation",
    "important",
    "mark",
    "nearby",
    "notification",
    "symbol",
    "warning"
  ],
  "category": ["device"],
  "type": "static",
  "label": "None",
  "date": "03/03/2021",
  "hasOutlined": true
}
