{
  "name": "new_label",
  "do": "",
  "dont": "",
  "tags": [
    "sticker",
    "add",
    "sale",
    "buy",
    "price",
    "tag",
    "shopping",
    "discount",
    "identification"
  ],
  "category": ["action"],
  "type": "static",
  "label": "None",
  "date": "05/03/2021",
  "hasOutlined": true
}
