{
  "name": "no_meals",
  "do": "",
  "dont": "",
  "tags": [
    "food",
    "dinner",
    "breakfast",
    "lunch",
    "snack",
    "disabled",
    "forbidden"
  ],
  "category": ["maps"],
  "type": "static",
  "hasOutlined": true,
  "date": "30/11/2020"
}
