{
  "name": "not_interested",
  "do": "",
  "dont": "",
  "tags": ["no", "dislike", "x", "circle", "Not interested", "off"],
  "category": ["av"],
  "type": "static",
  "hasOutlined": true,
  "date": "30/11/2020"
}
