{
  "name": "palette",
  "do": "",
  "dont": "",
  "tags": [
    "photography",
    "photo",
    "image",
    "style",
    "custom",
    "edit",
    "colors",
    "colours"
  ],
  "category": ["image"],
  "type": "static",
  "hasOutlined": true,
  "date": "30/11/2020"
}
