{
  "name": "panorama_wide_angle",
  "do": "",
  "dont": "",
  "tags": ["image", "perspective", "ratio", "photography", "photo"],
  "category": ["image"],
  "type": "static",
  "hasOutlined": true,
  "date": "30/11/2020"
}
