{
  "name": "pause_presentation",
  "do": "",
  "dont": "",
  "tags": ["Presentation", "device", "pause", "present", "screen", "share"],
  "category": ["communication"],
  "type": "static",
  "hasOutlined": true,
  "date": "30/11/2020"
}
