{
  "name": "perm_contact_calendar",
  "do": "",
  "dont": "",
  "tags": [
    "calendar",
    "face",
    "person",
    "contact",
    "profile",
    "information",
    "human",
    "people",
    "user",
    "account"
  ],
  "category": ["action"],
  "type": "static",
  "hasOutlined": true,
  "date": "30/11/2020"
}
