{
  "name": "phone_disabled",
  "do": "",
  "dont": "",
  "tags": [
    "Android",
    "OS",
    "call",
    "chat",
    "device",
    "disabled",
    "enabled",
    "hardware",
    "iOS",
    "mobile",
    "off",
    "on",
    "phone",
    "slash",
    "tablet",
    "text"
  ],
  "category": ["communication"],
  "type": "static",
  "hasOutlined": true,
  "date": "30/11/2020"
}
