{
  "name": "pie_chart",
  "do": "",
  "dont": "",
  "tags": [
    "data",
    "infographic",
    "pie",
    "tracking",
    "bars",
    "graph",
    "analytics",
    "diagram",
    "bar",
    "measure",
    "metrics",
    "statistics",
    "chart"
  ],
  "category": ["editor"],
  "type": "static",
  "hasOutlined": true,
  "date": "30/11/2020"
}
