{
  "name": "podcasts",
  "do": "",
  "dont": "",
  "tags": [
    "broadcast",
    "casting",
    "network",
    "podcasts",
    "signal",
    "transmitting",
    "wireless"
  ],
  "category": ["search"],
  "type": "static",
  "label": "None",
  "date": "03/03/2021",
  "hasOutlined": true
}
