{
  "name": "point_of_sale",
  "do": "",
  "dont": "",
  "tags": [
    "register",
    "till",
    "cash box",
    "cashier",
    "checkout",
    "sales counter",
    "pay",
    "money box",
    "pay desk",
    "cashbox",
    "coin box",
    "sales register"
  ],
  "category": ["hardware"],
  "type": "static",
  "hasOutlined": true,
  "date": "30/11/2020"
}
