{
  "name": "power",
  "do": "",
  "dont": "",
  "tags": ["energy", "switch", "electricity", "on", "connector", "plug"],
  "category": ["notification"],
  "type": "static",
  "hasOutlined": true,
  "date": "30/11/2020"
}
