{
  "name": "power_off",
  "do": "",
  "dont": "",
  "tags": [
    "charge",
    "cord",
    "disabled",
    "electric",
    "electrical",
    "enabled",
    "off",
    "on",
    "plug",
    "power",
    "slash"
  ],
  "category": ["notification"],
  "type": "static",
  "hasOutlined": true,
  "date": "30/11/2020"
}
