{
  "name": "reduce_capacity",
  "do": "",
  "dont": "",
  "tags": [
    "less",
    "lower",
    "lessen",
    "decrease",
    "people",
    "groups",
    "attendance",
    "customers",
    "clients",
    "minimize",
    "narrow",
    "shrink"
  ],
  "category": ["social"],
  "type": "static",
  "hasOutlined": true,
  "date": "30/11/2020"
}
