{
  "name": "remove_done",
  "do": "",
  "dont": "",
  "tags": [
    "approve",
    "check",
    "complete",
    "disabled",
    "done",
    "enabled",
    "finished",
    "mark",
    "multiple",
    "off",
    "ok",
    "on",
    "remove",
    "select",
    "slash",
    "tick",
    "yes"
  ],
  "category": ["action"],
  "type": "static",
  "label": "None",
  "date": "03/03/2021",
  "hasOutlined": true
}
