{
  "name": "report_problem",
  "do": "",
  "dont": "",
  "tags": [
    "!",
    "symbol",
    "exclamation",
    "danger",
    "error",
    "triangle",
    "feedback",
    "notification",
    "problem",
    "alert",
    "report",
    "attention",
    "warning",
    "caution",
    "mark"
  ],
  "category": ["action"],
  "type": "static",
  "hasOutlined": true,
  "date": "30/11/2020"
}
