{
  "name": "restaurant_menu",
  "do": "",
  "dont": "",
  "tags": [
    "meal",
    "fork",
    "knife",
    "restuarant",
    "dining",
    "book",
    "spoon",
    "eat",
    "menu",
    "food",
    "local"
  ],
  "category": ["maps"],
  "type": "static",
  "hasOutlined": true,
  "date": "30/11/2020"
}
