{
  "name": "rtt",
  "do": "",
  "dont": "",
  "tags": ["call.", "realtime", "rrt", "text"],
  "category": ["communication"],
  "type": "static",
  "label": "None",
  "date": "03/03/2021",
  "hasOutlined": true
}
