{
  "name": "rule",
  "do": "",
  "dont": "",
  "tags": [
    "false",
    "true",
    "check",
    "x",
    "close",
    "cancel",
    "list",
    "options",
    "regulation",
    "directive"
  ],
  "category": ["action"],
  "type": "static",
  "hasOutlined": true,
  "date": "30/11/2020"
}
