{
  "name": "screenshot",
  "do": "",
  "dont": "",
  "tags": [
    "Android",
    "OS",
    "crop",
    "device",
    "hardware",
    "iOS",
    "mobile",
    "phone",
    "screen",
    "screenshot",
    "tablet"
  ],
  "category": ["device"],
  "type": "static",
  "label": "None",
  "date": "03/03/2021",
  "hasOutlined": true
}
