{
  "name": "sd",
  "do": "",
  "dont": "",
  "tags": [
    "alphabet",
    "camera",
    "card",
    "cards",
    "character",
    "data",
    "device",
    "digital",
    "flash",
    "font",
    "image",
    "letter",
    "memory",
    "photo",
    "sd",
    "secure",
    "symbol",
    "text",
    "type"
  ],
  "category": ["av"],
  "type": "static",
  "label": "None",
  "date": "03/03/2021",
  "hasOutlined": true
}
