{
  "name": "sd_card",
  "do": "",
  "dont": "",
  "tags": ["information", "data", "memory", "usb", "drive", "storage"],
  "category": ["notification"],
  "type": "static",
  "hasOutlined": true,
  "date": "30/11/2020"
}
