{
  "name": "settings_accessibility",
  "do": "",
  "dont": "",
  "tags": [
    "accessibility",
    "body",
    "details",
    "human",
    "information",
    "people",
    "person",
    "personal",
    "preferences",
    "profile",
    "settings",
    "user"
  ],
  "category": ["action"],
  "type": "static",
  "label": "None",
  "date": "03/03/2021",
  "hasOutlined": true
}
