{
  "name": "shop_two",
  "do": "",
  "dont": "",
  "tags": [
    "add",
    "play",
    "shop",
    "arrow",
    "buy",
    "purchase",
    "google",
    "cart",
    "shopping"
  ],
  "category": ["action"],
  "type": "static",
  "hasOutlined": true,
  "date": "30/11/2020"
}
