{
  "name": "signal_wifi_off",
  "do": "",
  "dont": "",
  "tags": [
    "wifi",
    "celluar",
    "data",
    "mobile",
    "cell",
    "enabled",
    "off",
    "speed",
    "network",
    "phone",
    "disabled",
    "slash",
    "wireless",
    "signal",
    "internet",
    "on"
  ],
  "category": ["device"],
  "type": "static",
  "hasOutlined": true,
  "date": "30/11/2020"
}
