{
  "name": "spa",
  "do": "",
  "dont": "",
  "tags": ["health", "lotus", "flower", "Nymphaea nelumbo"],
  "category": ["places"],
  "type": "static",
  "hasOutlined": true,
  "date": "30/11/2020"
}
