{
  "name": "speaker",
  "do": "",
  "dont": "",
  "tags": ["volume", "sound", "audio", "hi-fi", "stereo"],
  "category": ["hardware"],
  "type": "static",
  "hasOutlined": true,
  "date": "30/11/2020"
}
