{
  "name": "sports_motorsports",
  "do": "",
  "dont": "",
  "tags": [
    "athlete",
    "athletic",
    "automobile",
    "bike",
    "drive",
    "driving",
    "entertainment",
    "helmet",
    "hobby",
    "motorcycle",
    "motorsports",
    "protect",
    "social",
    "sports",
    "vehicle"
  ],
  "category": ["social"],
  "type": "static",
  "hasOutlined": true,
  "date": "30/11/2020"
}
