{
  "name": "stop",
  "do": "",
  "dont": "",
  "tags": ["play", "controls", "music", "vide", "Stop", "arrow", "control"],
  "category": ["av"],
  "type": "static",
  "hasOutlined": true,
  "date": "30/11/2020"
}
