{
  "name": "tab",
  "do": "",
  "dont": "",
  "tags": [
    "website",
    "folder",
    "tab",
    "documents",
    "web",
    "browser",
    "document",
    "tabs",
    "window",
    "windows"
  ],
  "category": ["action"],
  "type": "static",
  "hasOutlined": true,
  "date": "30/11/2020"
}
