{
  "name": "tablet_android",
  "do": "",
  "dont": "",
  "tags": ["pad", "ipad", "memo", "android", "google", "chrome"],
  "category": ["hardware"],
  "type": "static",
  "hasOutlined": true,
  "date": "30/11/2020"
}
