{
  "name": "text_format",
  "do": "",
  "dont": "",
  "tags": [
    "symbol",
    "character",
    "square A",
    "letter",
    "format",
    "style",
    "alphabet",
    "text",
    "type",
    "font"
  ],
  "category": ["content"],
  "type": "static",
  "hasOutlined": true,
  "date": "30/11/2020"
}
