{
  "name": "texture",
  "do": "",
  "dont": "",
  "tags": ["camera", "pattern", "background", "setting", "photo"],
  "category": ["image"],
  "type": "static",
  "hasOutlined": true,
  "date": "30/11/2020"
}
