{
  "name": "tonality",
  "do": "",
  "dont": "",
  "tags": ["tool", "tone", "setting", "design", "graphic"],
  "category": ["image"],
  "type": "static",
  "hasOutlined": true,
  "date": "30/11/2020"
}
