{
  "name": "touch_app",
  "do": "",
  "dont": "",
  "tags": [
    "hands",
    "arrow",
    "swipe",
    "touch",
    "fingers",
    "apps",
    "gesture",
    "hand"
  ],
  "category": ["action"],
  "type": "static",
  "hasOutlined": true,
  "date": "30/11/2020"
}
