{
  "name": "transfer_within_a_station",
  "do": "",
  "dont": "",
  "tags": [
    "arrow",
    "right",
    "body",
    "people",
    "transportation",
    "vehicle",
    "route",
    "transfer",
    "public",
    "stop",
    "left",
    "person",
    "station",
    "human",
    "walk",
    "direction"
  ],
  "category": ["maps"],
  "type": "static",
  "hasOutlined": true,
  "date": "30/11/2020"
}
