{
  "name": "trending_down",
  "do": "",
  "dont": "",
  "tags": [
    "trending",
    "data",
    "arrow",
    "metric",
    "rate",
    "change",
    "track",
    "down",
    "movement",
    "tracking"
  ],
  "category": ["action"],
  "type": "static",
  "hasOutlined": true,
  "date": "30/11/2020"
}
