{
  "name": "tune",
  "do": "",
  "dont": "",
  "tags": ["music", "sound", "control", "settings", "options"],
  "category": ["image"],
  "type": "static",
  "hasOutlined": true,
  "date": "30/11/2020"
}
