{
  "name": "undo",
  "do": "",
  "dont": "",
  "tags": ["rotate", "undo", "previous", "arrow", "repeat", "backward", "redo"],
  "category": ["content"],
  "type": "static",
  "hasOutlined": true,
  "date": "30/11/2020"
}
