{
  "name": "unsubscribe",
  "do": "",
  "dont": "",
  "tags": [
    "Unsubscribe",
    "close",
    "envelop",
    "mail",
    "newsletter",
    "off",
    "subscribe"
  ],
  "category": ["communication"],
  "type": "static",
  "hasOutlined": true,
  "date": "30/11/2020"
}
