{
  "name": "view_stream",
  "do": "",
  "dont": "",
  "tags": [
    "view",
    "stacked",
    "stream",
    "format",
    "reorder",
    "lines",
    "list",
    "title",
    "order"
  ],
  "category": ["action"],
  "type": "static",
  "hasOutlined": true,
  "date": "30/11/2020"
}
