{
  "name": "view_week",
  "do": "",
  "dont": "",
  "tags": ["view", "week", "columns", "format", "day", "bars"],
  "category": ["action"],
  "type": "static",
  "hasOutlined": true,
  "date": "30/11/2020"
}
