{
  "name": "voicemail",
  "do": "",
  "dont": "",
  "tags": [
    "call",
    "voice",
    "phone",
    "missed",
    "mobile",
    "Voicemail",
    "recording",
    "message",
    "device"
  ],
  "category": ["communication"],
  "type": "static",
  "hasOutlined": true,
  "date": "30/11/2020"
}
