{
  "name": "wallpaper",
  "do": "",
  "dont": "",
  "tags": ["image", "wallpaper", "background", "landscape"],
  "category": ["device"],
  "type": "static",
  "hasOutlined": true,
  "date": "30/11/2020"
}
