{
  "name": "wb_incandescent",
  "do": "",
  "dont": "",
  "tags": ["photo", "image", "settings", "effects", "camera"],
  "category": ["image"],
  "type": "static",
  "hasOutlined": true,
  "date": "30/11/2020"
}
