{
  "name": "web_asset",
  "do": "",
  "dont": "",
  "tags": [
    "image",
    "download",
    "website",
    "Web",
    "www",
    "browser",
    "screen",
    "video",
    "asset",
    "internet"
  ],
  "category": ["av"],
  "type": "static",
  "hasOutlined": true,
  "date": "30/11/2020"
}
