{
  "name": "wifi_tethering_off",
  "do": "",
  "dont": "",
  "tags": [
    "cell",
    "cellular",
    "data",
    "disabled",
    "enabled",
    "error",
    "internet",
    "mobile",
    "network",
    "off",
    "on",
    "phone",
    "slash",
    "speed",
    "tethering",
    "wifi",
    "wireless"
  ],
  "category": ["device"],
  "type": "static",
  "label": "None",
  "date": "03/03/2021",
  "hasOutlined": true
}
