{
  "name": "work_outline",
  "do": "",
  "dont": "",
  "tags": ["briefcase", "job", "suit", "suitcase", "work"],
  "category": ["action"],
  "type": "static",
  "hasOutlined": true,
  "date": "30/11/2020"
}
