{
  "name": "activate_subscriptions",
  "do": "<ul><li>For subscription activations.</li></ul>",
  "dont": "<ul><li>To show activated subscriptions. Use product_subscriptions instead.</li></ul>",
  "tags": ["eos", "registration codes", "reg codes"],
  "category": "services",
  "type": "static",
  "date": "30/11/2020",
  "hasOutlined": true,
  "dateOutlined": "2/26/2021"
}
