{
  "name": "critical_bug",
  "do": "<ul><li>To represent a critical bug fix or detection.</li></ul>",
  "dont": "<ul><li>To display alerts or errors.</li></ul>",
  "tags": ["eos", "bug", "error", "fault", "flaw", "glitch", "defect"],
  "category": "development",
  "type": "static",
  "date": "30/11/2020",
  "hasOutlined": true,
  "dateOutlined": "3/1/2021"
}
