{
  "name": "data_scientist",
  "do": "<ul><li>Use it to represent a data scientist role</li></ul>",
  "dont": "<ul><li>Don't use it to represent any other role.</li></ul>",
  "tags": ["eos", "lab", "science", "chemist", "research", "beaker"],
  "category": "roles",
  "type": "static",
  "date": "30/11/2020",
  "hasOutlined": true,
  "dateOutlined": "01/03/2021"
}
