{
  "name": "ip",
  "do": "<ul><li>Use it when listing or remarking an Internet Protocol address.</li></ul>",
  "dont": "<ul><li>Don't use it for network, route, http, or others.</li></ul>",
  "tags": ["eos", "internet", "protocol", "address", "numerical label"],
  "category": "virtualization",
  "type": "static",
  "date": "30/11/2020",
  "hasOutlined": true,
  "dateOutlined": "3/4/2021"
}
