{
  "name": "molecules",
  "do": "Use it in atomic design to represent components.",
  "dont": "",
  "tags": ["eos", "atomic", "mote", "atom", "speck", "corpuscle", "particle"],
  "category": "design",
  "type": "static",
  "date": "30/11/2020"
}
