{
  "name": "pod_security",
  "do": "<ul><li>Use to edit the security configuration of a pod, to view the security settings, or to enable/disable it.</li></ul>",
  "dont": "<ul><li>Don't use it for general security settings</li></ul>",
  "tags": ["eos", "kubernetes", "containers", "safety"],
  "category": "virtualization",
  "type": "static",
  "date": "30/11/2020"
}
