{
  "name": "product_subscriptions",
  "do": "<ul><li>To show a list of all subscriptions.</li></ul>",
  "dont": "<ul><li>To activate or remove subscriptions.</li></ul>",
  "tags": ["eos", "product subscription"],
  "category": "services",
  "type": "static",
  "date": "30/11/2020"
}
