{
  "name": "service_instance",
  "do": "<ul><li>To represent service instance.</li></ul>",
  "dont": "<ul><li>To represent service.</li></ul>",
  "tags": ["eos", "service", "kubernetes", "instance", "supply", "serve"],
  "category": "virtualization",
  "type": "static",
  "date": "30/11/2020"
}
