{
  "name": "subscriptions_created",
  "do": "<ul><li>To represent a successfully activated subscription.</li></ul>",
  "dont": "<ul><li>To create a subscription.</li></ul>",
  "tags": ["eos", "subscription", "activated"],
  "category": "services",
  "type": "static",
  "date": "30/11/2020"
}
